<?xml version="1.0" encoding="utf-8"?>
<!-- Generator: Adobe Illustrator 17.1.0, SVG Export Plug-In . SVG Version: 6.00 Build 0)  -->
<!DOCTYPE svg PUBLIC "-//W3C//DTD SVG 1.1//EN" "http://www.w3.org/Graphics/SVG/1.1/DTD/svg11.dtd">
<svg version="1.1" id="Layer_1" xmlns="http://www.w3.org/2000/svg" xmlns:xlink="http://www.w3.org/1999/xlink" x="0px" y="0px"
	 viewBox="0 0 283.46 168.22" enable-background="new 0 0 283.46 168.22" xml:space="preserve">
<g>
	<g>
		<path d="M50.6,116.63c-3.71,10.41-13.52,17.23-24.4,17.23C11.96,133.86,0,121.78,0,107.54c0-14.47,11.72-26.19,26.19-26.19
			c7.06,0,13.52,2.75,18.54,7.78c4.07,4.06,6.7,9.81,6.7,14.23c0,2.99-1.2,5.5-3.35,7.18c-2.27,1.67-3.83,2.03-9.57,2.03H12.44
			c2.15,5.98,7.66,9.81,14,9.81c4.78,0,8.61-1.91,11.72-5.74H50.6z M39.95,102.16c-1.91-5.62-7.3-9.33-13.52-9.33
			c-6.1,0-11.36,3.59-13.75,9.33H39.95z"/>
		<path d="M95.81,126.2c-1.8,5.74-3.71,7.77-7.54,7.77c-3.59,0-5.26-1.67-7.06-6.94L66.38,82.07h11.96l9.57,34.09l10.41-34.09h11.36
			L95.81,126.2z"/>
		<rect x="129.77" y="82.07" width="11.72" height="51.07"/>
		<path d="M197.95,133.14v-24.76c0-5.86-0.48-8.73-1.91-11.24c-1.44-2.51-4.67-4.31-7.78-4.31c-3.23,0-6.46,1.67-8.01,4.19
			c-1.43,2.39-1.91,4.78-1.91,10.52v25.6h-11.72V104.2c0-6.46,1.44-10.89,4.78-14.95c3.95-5.02,10.29-7.89,16.75-7.89
			c6.46,0,12.68,2.87,16.75,7.66c3.59,4.3,4.78,8.25,4.78,16.03v28.11H197.95z"/>
		<path d="M271.74,133.14v-4.67c-4.79,3.59-9.57,5.38-14.95,5.38c-13.87,0-25.71-12.08-25.71-26.19c0-14.36,11.96-26.32,26.43-26.32
			c8.73,0,17.34,4.55,21.89,11.72c3.23,5.14,4.07,9.09,4.07,19.37v20.69H271.74z M242.8,107.66c0,8.25,6.46,14.71,14.83,14.71
			c8.14,0,14.59-6.34,14.59-14.35c0-8.61-6.34-15.19-14.47-15.19C249.38,92.83,242.8,99.29,242.8,107.66z"/>
	</g>
	<g>
		<path fill="#7AB800" d="M158.03,16.02l-21.3,38.97l32.83-11.74c0.68-2.72,1.05-5.56,1.05-8.48C170.6,15.56,155.03,0,135.84,0
			c-0.82,0-1.64,0.04-2.45,0.1L115.91,31.1L158.03,16.02z"/>
		<path d="M124.77,65.15l21.29-38.86l-42.16,14.97l21.97-39.8c-14.34,4.28-24.8,17.57-24.8,33.31c0,19.2,15.56,34.76,34.76,34.76
			c13.59,0,25.35-7.81,31.07-19.17L124.77,65.15z"/>
	</g>
	<g>
		<path fill="#7AB800" d="M16.81,168.07v-7.44c0-1.2-0.13-1.39-1.08-1.39h-1.62c-1.27,0-1.8-0.31-2.06-1.2v10.04H8.7V150.3
			c0-2.47,0.82-3.36,3.13-3.36h2.03c3.61,0,6.3,2.6,6.3,6.05c0,1.9-0.73,3.39-2.09,4.21c1.52,0.22,2.09,1.01,2.09,2.85v8.01H16.81z
			 M12.05,157.45c0.19-1.07,0.6-1.36,2.53-1.55c1.36-0.19,2.22-1.23,2.22-2.66c0-1.3-0.73-2.47-1.71-2.82
			c-0.63-0.25-1.14-0.29-3.04-0.29V157.45z"/>
		<path fill="#7AB800" d="M53.1,168.07c-2.31,0-3.13-0.82-3.13-3.17v-14.66c0-1.36,0.09-1.8,0.54-2.31c0.51-0.6,1.43-0.98,2.44-0.98
			h6.71v3.26h-6.33v5.29h5.76v3.26h-5.76v6.05h6.33v3.26H53.1z"/>
		<path fill="#7AB800" d="M88.97,168.07v-21.12h3.36v21.12H88.97z M99.08,168.07L93,158.95c-0.35-0.54-0.54-1.08-0.54-1.58
			c0-0.54,0.25-1.33,0.57-1.87l5.32-8.55h3.83l-6.56,10.26l7.6,10.86H99.08z"/>
		<path fill="#7AB800" d="M133.94,168.07c-1.55,0-2.35-0.29-2.85-1.08c-0.35-0.51-0.44-0.98-0.44-2.22v-17.83h3.36v17.86h6.3v3.26
			H133.94z"/>
		<path fill="#7AB800" d="M179.51,168.07l-1.17-3.99h-7.12l-1.11,3.99h-3.45l5.73-19.35c0.41-1.42,1.26-2.18,2.44-2.18
			c1.2,0,1.93,0.67,2.4,2.21l5.73,19.32H179.51z M174.7,151.53l-2.56,9.28h5.29L174.7,151.53z"/>
		<path fill="#7AB800" d="M227.17,168.07v-14.73l-4.5,13.02c-0.45,1.3-1.08,1.87-2.06,1.87c-0.92,0-1.65-0.6-2-1.68l-4.37-12.95
			v14.47h-3.14v-18.27c0-1.11,0.12-1.62,0.47-2.09c0.44-0.63,1.11-0.98,1.87-0.98c1.14,0,1.99,0.82,2.56,2.5l4.59,13.62l4.88-14.03
			c0.47-1.36,1.27-2.03,2.44-2.03c1.49,0,2.37,1.11,2.37,3.01v18.27H227.17z"/>
		<path fill="#7AB800" d="M271.31,168.07l-1.17-3.99h-7.13l-1.11,3.99h-3.45l5.73-19.35c0.41-1.42,1.27-2.18,2.44-2.18
			c1.2,0,1.93,0.67,2.41,2.21l5.73,19.32H271.31z M266.5,151.53l-2.57,9.28h5.29L266.5,151.53z"/>
	</g>
</g>
</svg>
