<?xml version="1.0" encoding="utf-8"?>
<!-- Generator: Adobe Illustrator 17.1.0, SVG Export Plug-In . SVG Version: 6.00 Build 0)  -->
<!DOCTYPE svg PUBLIC "-//W3C//DTD SVG 1.1//EN" "http://www.w3.org/Graphics/SVG/1.1/DTD/svg11.dtd">
<svg version="1.1" id="Layer_1" xmlns="http://www.w3.org/2000/svg" xmlns:xlink="http://www.w3.org/1999/xlink" x="0px" y="0px"
	 viewBox="0 0 512.72 215.59" enable-background="new 0 0 512.72 215.59" xml:space="preserve">
<path fill-rule="evenodd" clip-rule="evenodd" fill="#FFF500" d="M85.04,3.33c-46.19,0-81.7,34.35-81.7,78.87
	c0,44.52,35.52,78.87,81.7,78.87h342.65c46.19,0,81.87-34.35,81.87-78.87c0-44.52-35.68-78.87-81.87-78.87"/>
<path fill-rule="evenodd" clip-rule="evenodd" fill="#1F1A17" d="M132.89,58.02V38.52H72.36c0,29.23,0,58.47,0,87.7h60.86v-20.84
	H97.71V91.87h35.18V72.7H97.71V58.02"/>
<polyline fill-rule="evenodd" clip-rule="evenodd" fill="#1F1A17" points="155.9,38.52 183.75,38.52 201.42,88.37 218.93,38.52 
	247.27,38.52 213.09,125.72 188.92,125.72 "/>
<polyline fill-rule="evenodd" clip-rule="evenodd" fill="#1F1A17" points="256.61,38.68 284.46,38.68 302.13,88.71 319.64,38.68 
	348.15,38.68 313.8,126.22 289.79,126.22 "/>
<path fill-rule="evenodd" clip-rule="evenodd" fill="#1F1A17" d="M395.17,89.87l9.17-25.34l9.17,25.34 M426.52,125.72h27.18
	l-33.68-87.2h-31.35l-33.85,87.2h27.51l6.34-17.67h31.51L426.52,125.72z"/>
<path fill-rule="evenodd" clip-rule="evenodd" fill="#1F1A17" d="M17.67,82.2c0-35.52,29.18-64.53,65.2-64.53h346.98
	c36.02,0,65.36,29.01,65.36,64.53c0,35.68-29.35,64.53-65.36,64.53H82.87C46.85,146.73,17.67,117.88,17.67,82.2 M82.87,0
	C36.02,0,0,35.85,0,82.2c0,46.52,36.02,82.2,82.87,82.2h346.98c46.85,0,82.87-35.68,82.87-82.2c0-46.35-36.02-82.2-82.87-82.2H82.87
	z"/>
<path fill-rule="evenodd" clip-rule="evenodd" fill="#1F1A17" d="M453.53,180.41h-6.5l-5,18.51l-5.17-18.51h-7l8.84,25.18
	c-0.88,2.41-1.63,5.34-4.84,5.34c-0.79,0-1.78-0.14-2.5-0.5l-0.33,4.67c1.56,0,3.05,0.5,4.67,0.5c5.21,0,7.37-3.81,9-8.17
	 M427.52,199.92c-3.07,1.02-5.67,0.37-5.67-3.17v-11.84h5.5v-4.5h-5.5v-7l-6.67,2.17v4.84h-4.34v4.5h4.34v11.67
	c0,4.67,1.47,8.67,6.84,8.67c1.82,0,3.94-0.43,5.67-1L427.52,199.92z M406.34,175.91v-5.34h-6.67v5.34H406.34z M406.34,204.59
	v-24.18h-6.67v24.18H406.34z M395.34,180.08c-1.53,0-2.55-0.24-4.17,0.17c-2.09,0.83-3.7,2.9-4.67,4.84l-0.17-4.67h-6.17
	c0,8.05,0.17,16.12,0.17,24.18H387v-10.84c0-4.1,3.17-10.17,8.17-7.67L395.34,180.08z M373.21,204.59l-0.05-24.18h-6.67v13.34
	c0,3.13-1.08,6.67-4.84,6.67c-3.37,0-4-3.09-4-5.84v-14.17h-6.67v15.67c0,5.19,2.61,9.17,8.17,9.17c3.49,0,6.16-1.65,7.84-4.67
	l0.17,4H373.21z M346.32,199.59c-1.67,0.83-3.33,1.17-5.17,1.17c-4.73,0-7.5-3.87-7.5-8.34c0-4.32,2.86-8,7.5-8
	c1.69,0,3.49,0.41,5,1.17l0.33-4.67c-2.17-0.67-4.5-1-6.84-1c-7.46,0-13.17,4.81-13.17,12.51c0,7.62,5.2,12.84,12.84,12.84
	c2.35,0,4.91-0.36,7.17-1L346.32,199.59z M322.64,194.08c0-7.09-2.27-14.17-10.84-14.17c-6.98,0-11.84,5.75-11.84,12.51
	c0,7.87,4.54,12.84,12.51,12.84c2.9,0,6.11-0.31,8.84-1.33l-0.17-4.5c-2.12,1.06-4.97,1.67-7.34,1.67c-4.2,0-7.17-2.79-7.17-7
	H322.64z M306.63,190.58c0-3,1.66-6.67,5.17-6.67c3.63,0,4.67,3.7,4.67,6.67H306.63z M290.63,190.58c-1.59-0.45-6.17-1.5-6.17-3.67
	c0-2.35,2.5-2.83,4.33-2.83c2.26,0,4.36,0.45,6.5,1.17l0.33-4.34c-2.42-0.69-4.66-1-7.17-1c-4.42,0-10.34,1.76-10.34,7.17
	c0,3.65,3.09,5.48,6.17,6.5c1.93,0.64,6.17,1.75,6.17,4.34c0,2.38-2.72,3.17-4.67,3.17c-2.25,0-5.28-0.57-7.17-1.83l-0.33,4.67
	c2.49,0.93,5.35,1.33,8,1.33c4.92,0,10.34-2.21,10.34-7.84C296.63,193.64,293.96,191.69,290.63,190.58z M253.11,179.91
	c-7.28,0-12.67,5.16-12.67,12.51c0,7.58,5.04,12.84,12.67,12.84c7.81,0,12.67-5.15,12.67-12.84
	C265.78,184.68,260.84,179.91,253.11,179.91z M253.11,200.75c-4.21,0-5.5-4.92-5.5-8.34c0-3.46,1.33-8,5.5-8
	c4.34,0,5.67,4.32,5.67,8C258.78,196.04,257.48,200.75,253.11,200.75z M237.44,199.92c-3.09,1.24-5.5,0.39-5.5-3.17v-11.84h5.34
	v-4.5h-5.34v-7l-6.67,2.17v4.84h-4.33v4.5h4.33v11.67c0,4.73,1.34,8.67,6.84,8.67c1.72,0,3.91-0.36,5.5-1L237.44,199.92z
	 M200.75,189.58c-1.18-0.39-3.17-1.15-3.17-2.67c0-2.38,2.48-2.83,4.34-2.83c2.26,0,4.36,0.45,6.5,1.17l0.33-4.34
	c-2.42-0.69-4.66-1-7.17-1c-4.42,0-10.34,1.76-10.34,7.17c0,4.86,5.36,6.4,9.17,7.67c1.44,0.57,3.17,1.35,3.17,3.17
	c0,2.36-2.74,3.17-4.67,3.17c-2.43,0-5.21-0.62-7.34-1.83l-0.17,4.67c2.49,0.93,5.35,1.33,8,1.33c4.78,0,10.34-2.14,10.34-7.84
	C209.76,191.99,204.78,191.19,200.75,189.58z M178.74,189.58c-1.18-0.39-3.17-1.15-3.17-2.67c0-2.38,2.48-2.83,4.34-2.83
	c2.26,0,4.36,0.45,6.5,1.17l0.33-4.34c-2.42-0.69-4.66-1-7.17-1c-4.42,0-10.34,1.76-10.34,7.17c0,4.86,5.36,6.4,9.17,7.67
	c1.44,0.57,3.17,1.35,3.17,3.17c0,2.36-2.74,3.17-4.67,3.17c-2.43,0-5.21-0.62-7.34-1.83l-0.17,4.67c2.49,0.93,5.35,1.33,8,1.33
	c4.78,0,10.34-2.14,10.34-7.84C187.75,192.36,182.82,190.94,178.74,189.58z M165.74,194.08c0-7.09-2.27-14.17-10.84-14.17
	c-7.03,0-11.84,5.71-11.84,12.51c0,4,1,7.17,3.17,9.5c2.17,2.17,5.17,3.33,9.34,3.33c2.88,0,6.13-0.32,8.84-1.33l-0.33-4.5
	c-2.12,1.06-4.8,1.67-7.17,1.67c-4.03,0-7.34-2.85-7.34-7H165.74z M149.57,190.58c0-3,1.96-6.67,5.34-6.67
	c3.56,0,4.67,3.76,4.67,6.67H149.57z M140.06,199.59c-1.67,0.83-3.33,1.17-5.17,1.17c-4.88,0-7.34-3.85-7.34-8.34
	c0-4.55,2.78-8,7.5-8c1.62,0,3.39,0.44,4.84,1.17l0.33-4.67c-2.17-0.67-4.5-1-6.84-1c-7.25,0-13.01,4.82-13.01,12.51
	c0,7.79,5.34,12.84,12.84,12.84c2.33,0,4.94-0.36,7.17-1L140.06,199.59z M117.88,199.59c-1.67,0.83-3.34,1.17-5.34,1.17
	c-4.66,0-7.34-3.99-7.34-8.34c0-4.44,2.89-8,7.5-8c1.81,0,3.35,0.51,5,1.17l0.33-4.67c-2.17-0.67-4.5-1-7-1
	c-7.16,0-13.01,4.93-13.01,12.51c0,7.62,5.2,12.84,12.84,12.84c2.35,0,4.91-0.36,7.17-1L117.88,199.59z M94.21,204.59
	c-0.38-1.88-0.33-3.76-0.33-5.67v-9.5c0-1.83-0.33-3.33-0.83-4.5c-1.71-3.98-6.45-5-10.34-5c-2.83,0-5.86,0.68-8.5,1.67l0.33,4.33
	c2.18-1.24,4.83-1.83,7.34-1.83c3.89,0,5.67,1.91,5.67,5.67c-2.71,0-5.05-0.28-7.84,0.33c-4.52,1-8,3.03-8,8.17
	c0,4.61,3.71,7,8.17,7c3.03,0,6.07-1.78,7.67-4.34l0.17,3.67H94.21z M87.54,194.42c0,3.24-1.79,6.67-5.5,6.67c-2.02,0-4-1.11-4-3.34
	c0-3.27,3.13-4.05,5.84-4.5c1.22,0,2.44-0.17,3.67-0.17V194.42z"/>
</svg>
