<?xml version="1.0" encoding="utf-8"?>
<!-- Generator: Adobe Illustrator 17.1.0, SVG Export Plug-In . SVG Version: 6.00 Build 0)  -->
<!DOCTYPE svg PUBLIC "-//W3C//DTD SVG 1.1//EN" "http://www.w3.org/Graphics/SVG/1.1/DTD/svg11.dtd">
<svg version="1.1" id="Layer_1" xmlns="http://www.w3.org/2000/svg" xmlns:xlink="http://www.w3.org/1999/xlink" x="0px" y="0px"
	 viewBox="0 0 327.22 107.59" enable-background="new 0 0 327.22 107.59" xml:space="preserve">
<polyline fill-rule="evenodd" clip-rule="evenodd" fill="#D9261C" points="0,0 88.68,0 88.68,107.59 0,107.59 "/>
<path fill="#FFFFFF" d="M52.97,51.41h2.4c3.58,0,6.39,0,6.9,3.48c0.41,2.61,0.82,8.39,1.53,10.59h11.15
	c-3.38-9.87,0.26-17.8-10.28-18.16l0.05-0.2c4.96-0.61,9.46-3.22,9.46-9.21c-0.2-8.18-8.59-9.41-15.39-9.41h-5.84l0.06,7.21h4.4
	c3.78,0,5.83,1.07,6.04,3.99c0,3.58-2.76,4.5-5.78,4.5h-4.72"/>
<polyline fill="#FFFFFF" points="14.52,28.5 14.52,65.47 23.83,65.47 23.83,37.19 23.93,37.19 36.41,65.47 50.62,65.47 50.62,28.5 
	41.42,28.5 41.42,55.86 41.32,56.06 28.94,28.5 "/>
<polyline fill="#FFFFFF" points="5.09,100.56 7.55,100.56 7.55,98.55 8.46,97.3 9.92,100.56 12.84,100.56 10.12,95.1 12.33,91.94 
	9.92,91.94 7.55,95.5 7.55,91.94 5.09,91.94 "/>
<path fill="#FFFFFF" d="M23.87,96.99h-1.39l0.7-2.47 M19.35,100.56h2.18l0.49-1.69h2.29l0.51,1.69h2.69l-2.69-8.63h-2.76
	L19.35,100.56z"/>
<path fill="#FFFFFF" d="M37.4,93.78h1.24c0.64,0,0.98,0.41,0.98,0.83c0,0.43-0.31,0.81-0.95,0.81H37.4 M34.73,91.94v8.62h2.67v-3.31
	h0.78l1.3,3.31h2.93l-1.57-3.74c1.1-0.39,1.54-1.39,1.54-2.29c-0.05-1.53-1.13-2.58-3.11-2.58H34.73z"/>
<polyline fill="#FFFFFF" points="51.24,100.56 53.77,100.56 53.77,94.03 55.53,94.03 55.53,91.94 49.44,91.94 49.44,94.03 
	51.24,94.03 "/>
<polyline fill="#FFFFFF" points="62.85,100.56 69.3,100.56 69.3,98.53 65.44,98.53 65.44,97.14 68.57,97.14 68.57,95.2 65.44,95.2 
	65.44,93.96 69.3,93.96 69.3,91.99 62.85,91.99 "/>
<polyline fill="#FFFFFF" points="76.99,100.56 83.03,100.56 83.03,98.45 79.65,98.45 79.65,91.97 76.99,91.97 "/>
<polyline fill="#D9261C" points="105.36,39.28 116.59,39.28 116.59,30.16 120.69,24.46 127.36,39.28 140.64,39.28 128.27,14.43 
	138.3,0.07 127.36,0.07 116.59,16.26 116.59,0.07 105.36,0.07 "/>
<path fill="#D9261C" d="M163.64,23.04h-6.33l3.19-11.23 M143.07,39.28h9.92l2.22-7.69h10.43l2.34,7.69h12.25L167.97,0.01h-12.54
	L143.07,39.28z"/>
<path fill="#D9261C" d="M198.05,8.45h5.64c2.91,0,4.45,1.88,4.45,3.76c0,1.94-1.42,3.7-4.33,3.7h-5.76 M185.91,0.07v39.21h12.14
	V24.23h3.53l5.93,15.05h13.34l-7.12-17.04c5.02-1.77,7.01-6.33,7.01-10.43C220.5,4.86,215.6,0.07,206.6,0.07H185.91z"/>
<polyline fill="#D9261C" points="233.88,39.28 245.39,39.28 245.39,9.59 253.37,9.59 253.37,0.07 225.67,0.07 225.67,9.59 
	233.88,9.59 "/>
<polyline fill="#D9261C" points="259.51,39.28 288.86,39.28 288.86,30.05 271.31,30.05 271.31,23.72 285.55,23.72 285.55,14.89 
	271.31,14.89 271.31,9.25 288.86,9.25 288.86,0.3 259.51,0.3 "/>
<polyline fill="#D9261C" points="296.71,39.28 324.18,39.28 324.18,29.71 308.79,29.71 308.79,0.18 296.71,0.18 "/>
<path fill="#D9261C" d="M104.58,72.07h6.46V58.93c0-1.33-0.38-2.58-0.61-3.84c0.95,1.94,1.86,3.76,3.04,5.77
	c2.09,3.72,4.67,7.56,6.76,11.13l6.65,0.08V45.93h-6.5v7.83l0.65,6.95l-8.89-14.78h-7.56"/>
<polyline fill="#D9261C" points="132.76,72.07 140.85,72.07 140.85,46.01 132.76,46.01 "/>
<polyline fill="#D9261C" points="150.3,72.07 157.98,72.07 157.98,52.28 163.3,52.28 163.3,45.93 144.83,45.93 144.83,52.28 
	150.3,52.28 "/>
<path fill="#D9261C" d="M175.48,51.52h3.76c1.94,0,2.96,1.25,2.96,2.51c0,1.29-0.95,2.47-2.89,2.47h-3.84 M167.39,45.93v26.14h8.09
	V62.04h2.36l3.95,10.03h8.89l-4.75-11.36c3.34-1.18,4.67-4.22,4.67-6.95c-0.15-4.64-3.42-7.83-9.42-7.83H167.39z"/>
<path fill="#D9261C" d="M207,61.25h-4.22l2.13-7.48 M193.29,72.07h6.61l1.48-5.13h6.95l1.56,5.13h8.17l-8.17-26.18h-8.36
	L193.29,72.07z"/>
<path fill="#D9261C" d="M231.95,66.53c1.44,4.29,4.98,5.9,9.5,5.9c0.3,0,0.61-0.04,0.95-0.04c4.79-0.15,9.31-2.02,9.31-6.66
	c0-0.27,0-0.53-0.04-0.8c-0.87-7.9-12.39-4.52-12.39-7.26c0-0.61,1.1-1.03,2.43-1.03c1.37,0,2.85,0.42,3.42,1.71l5.81-1.06
	c-1.29-3.46-5.13-5.09-9.08-5.09c-3.99,0-8.97,1.9-8.97,6.88c0.3,8.09,12.16,4.9,12.16,7.71c0,0.53-1.48,1.06-3.19,1.14
	c-1.71-0.08-3.53-0.61-3.91-2.17"/>
<polyline fill="#D9261C" points="255.61,72.07 262.87,72.07 262.87,65.08 255.61,65.08 "/>
<path fill="#D9261C" d="M268.29,72.07h7.48V62.8c0-2.55,1.25-3.88,3.34-3.88c0.61,0,1.18,0.08,1.79,0.23v-6.88
	c-0.46,0-0.8-0.08-1.25-0.08c-3.04,0-4.03,1.75-4.9,4.22v-3.8h-6.46"/>
<polyline fill="#D9261C" points="282.19,72.07 289.44,72.07 289.44,65.08 282.19,65.08 "/>
<path fill="#D9261C" d="M294.07,62.27c0,7.22,6.08,10.26,10.83,10.26c5.13-0.15,10.52-3.27,10.52-10.72
	c-0.3-6.38-5.47-9.54-10.68-9.54C299.39,52.28,294.07,55.66,294.07,62.27 M304.82,56.95c1.63,0,2.51,1.67,2.58,5.55
	c0,3.57-0.72,5.51-2.74,5.51c-1.71,0-2.47-1.94-2.62-5.28C302.04,58.93,302.96,56.95,304.82,56.95z"/>
<polyline fill="#D9261C" points="319.97,72.07 327.22,72.07 327.22,65.08 319.97,65.08 "/>
<path fill-rule="evenodd" clip-rule="evenodd" fill="#D9261C" d="M316.61,107.52h5.27l-0.05-7.39l5.47-10.15h-4.68l-2.94,5.7
	l-3.07-5.7h-5.88l5.88,10.15 M294.31,107.52h4.35v-8.85c0-0.9-0.26-1.74-0.41-2.58c0.64,1.3,1.25,2.53,2.05,3.89
	c1.41,2.51,3.15,5.09,4.55,7.49l4.48,0.05v-17.6h-4.37v5.27l0.43,4.68l-5.98-9.95h-5.09V107.52z M286.02,107.52h5.45V89.98h-5.45
	V107.52z M268.24,107.52h4.35v-8.85c0-0.9-0.26-1.74-0.41-2.58c0.64,1.3,1.25,2.53,2.05,3.89c1.41,2.51,3.15,5.09,4.55,7.49
	l4.48,0.05v-17.6h-4.37v5.27l0.43,4.68l-5.98-9.95h-5.09V107.52z M256.15,96.68l0.05-2.94h2.4c1.2,0,1.69,0.69,1.69,1.51
	c0,0.74-0.49,1.43-1.3,1.43H256.15z M256.15,100.44h2.66c1.23,0,1.89,0.74,1.89,1.59c0,0.79-0.67,1.56-1.94,1.56h-2.61V100.44z
	 M262.28,98.39c2.05-0.31,3.15-2.07,3.15-3.86c0-2.3-1.64-4.6-5.14-4.6h-9.03v17.6h9.69c3.38,0,5.04-2.4,5.04-4.76
	C265.99,100.62,264.69,98.62,262.28,98.39z M235.86,107.52h13.17v-4.14h-7.88v-2.84h6.39v-3.96h-6.39v-2.53h7.88v-4.02h-13.17
	V107.52z M223.56,107.52h5.45l5.5-17.6h-4.45l-3.25,11.25l-3.3-11.25h-5.63L223.56,107.52z M212.85,100.23h-2.84l1.43-5.04
	L212.85,100.23z M203.61,107.52h4.45l1-3.45h4.68l1.05,3.45h5.5l-5.5-17.62h-5.63L203.61,107.52z M196.3,107.52h5.17V94.2h3.58
	v-4.27h-12.43v4.27h3.68V107.52z M175.89,102.48c0.59,3.58,4.3,5.35,7.98,5.35c3.94,0,7.75-2,7.75-5.91
	c-0.2-7.16-9.59-4.73-9.59-7.29c0-0.54,0.9-1,1.94-1c1.15,0,2.35,0.51,2.76,1.74l4.42-1.38c-1.28-3.09-4.19-4.35-7.03-4.35
	c-3.56,0-7.03,2.05-7.24,5.04c-0.03,0.26-0.03,0.49-0.03,0.72c0,6.65,9.16,4.71,9.36,7.19c0,0.59-0.95,1.05-2.15,1.1
	c-1.3-0.05-2.84-0.67-3.25-2.2L175.89,102.48z M153.89,107.52h13.17v-4.14h-7.88v-2.84h6.39v-3.96h-6.39v-2.53h7.88v-4.02h-13.17
	V107.52z M144.17,85.89l-2.07-1.51h-3.2l5.27,4.14l5.24-4.14h-3.15L144.17,85.89z M135.96,102.48c0.59,3.58,4.3,5.35,7.98,5.35
	c3.94,0,7.75-2,7.75-5.91c-0.2-7.16-9.59-4.73-9.59-7.29c0-0.54,0.9-1,1.94-1c1.15,0,2.35,0.51,2.76,1.74l4.42-1.38
	c-1.28-3.09-4.19-4.35-7.03-4.35c-3.56,0-7.03,2.05-7.24,5.04c-0.03,0.26-0.03,0.49-0.03,0.72c0,6.65,9.16,4.71,9.36,7.19
	c0,0.59-0.95,1.05-2.15,1.1c-1.3-0.05-2.84-0.67-3.25-2.2L135.96,102.48z M128.21,100.23h-2.84l1.43-5.04L128.21,100.23z
	 M118.98,107.52h4.45l1-3.45h4.68l1.05,3.45h5.5l-5.5-17.62h-5.63L118.98,107.52z M110.33,107.52h5.45l5.5-17.6h-4.45l-3.25,11.25
	l-3.3-11.25h-5.63L110.33,107.52z"/>
</svg>
